Introduction to casabourse
…
La fonction bySector() :

Elle renvoie une table contenant des données par secteur d’activités. Elle est une fonction sans argument.

#>Afichage des données par secteur d'activité
bySector()
#> # A tibble: 23 × 4
#>    Secteur                                      Valeur    `Var %` `Var % 31/12`
#>    <chr>                                        <chr>     <chr>   <chr>        
#>  1 AGROALIMENTAIRE / PRODUCTION                 38 296,38 -       3,41 %       
#>  2 ASSURANCES                                   5 666,36  -       2,62 %       
#>  3 BATIMENT & MATERIAUX DE CONSTRUCTION         22 161,23 -       2,93 %       
#>  4 BANQUES                                      14 415,19 -       2,19 %       
#>  5 BOISSONS                                     17 326,55 -       8,11 %       
#>  6 CHIMIE                                       7 289,24  -       15,56 %      
#>  7 DISTRIBUTEURS                                51 205,69 -       7,06 %       
#>  8 ELECTRICITE                                  2 674,86  -       14,00 %      
#>  9 INGENIERIES & BIENS D’EQUIPEMENT INDUSTRIELS 171,51    -       42,15 %      
#> 10 PARTICIPATION ET PROMOTION IMMOBILIERES      3 829,77  -       11,43 %      
#> # … with 13 more rows

La fonction instruments() :

Elle est sans argument et nous donne les informations sur les instruments financiers du marché, telles que le code ISIN, le compartiment, le nombre de titres etc.

#>Afichage les instruments financiers du marché
instruments()
#> # A tibble: 76 × 5
#>    `Code ISIN`  `Libelle instru…` `Secteur/Catég…` Compartiment `Nombre de tit…`
#>    <chr>        <chr>             <chr>            <chr>        <chr>           
#>  1 MA0000012296 AFMA              ACTIONS 1ERE LI… Principal B  1000000         
#>  2 MA0000012114 AFRIC INDUSTRIES… ACTIONS 1ERE LI… Principal B  291500          
#>  3 MA0000010951 AFRIQUIA GAZ      ACTIONS 1ERE LI… Principal A  3437500         
#>  4 MA0000010944 AGMA              ACTIONS 1ERE LI… Alternatif A 200000          
#>  5 MA0000011819 ALLIANCES         ACTIONS 1ERE LI… Principal B  22078588        
#>  6 MA0000010936 ALUMINIUM DU MAR… ACTIONS 1ERE LI… Principal B  465954          
#>  7 MA0000012460 ARADEI CAPITAL    ACTIONS 1ERE LI… Principal F  10645783        
#>  8 MA0000011710 ATLANTASANAD      ACTIONS 1ERE LI… Principal A  60283595        
#>  9 MA0000012445 ATTIJARIWAFA BANK ACTIONS 1ERE LI… Principal A  215140839       
#> 10 MA0000010969 AUTO HALL         ACTIONS 1ERE LI… Principal A  50294528        
#> # … with 66 more rows
…
today.market() : est sans argument et renvoie le cours actuel des instruments financier ainsi que leurs variations, leurs cours à l’ouverture, leurs max etc.

#>Affichage des données du marché d'aujourd'hui
today.market()
#> # A tibble: 75 × 9
#>    Valeur    `Date/Heure` Ouverture Cours `Variation %` Quantité Volume `+ Haut`
#>    <chr>     <chr>        <chr>     <chr> <chr>         <chr>    <chr>  <chr>   
#>  1 Addoha    13:44:55     11,49     11,63 +1,66%        74 454   860 8… 11,65   
#>  2 AFMA      16.02.2022   1 389,00  1 38… 0,00%         1        1 389… 1 389,00
#>  3 Afric In… 16.02.2022   362,30    362,… +2,06%        104      37 24… 362,30  
#>  4 Afriquia… 10:42:32     5 720,00  5 72… -1,04%        2        11 44… 5 720,00
#>  5 Agma      15.02.2022   4 810,00  4 81… +0,19%        14       67 34… 4 810,00
#>  6 Alliances 13:32:38     47,50     49,81 +5,98%        138 739  6 656… 49,81   
#>  7 Aluminiu… 16.02.2022   1 440,00  1 44… -0,14%        82       118 1… 1 443,00
#>  8 Aradei C… 10:44:36     447,00    447,… -0,67%        171      76 89… 450,00  
#>  9 ATLANTAS… 12:21:36     137,00    138,… +1,47%        1 390    191 2… 138,50  
#> 10 Attijari… 13:37:31     481,00    481,… +0,14%        4 687    2 255… 481,50  
#> # … with 65 more rows, and 1 more variable: `+ Bas` <chr>

today.transactions() : permet d’obtenir une table des transactions de la journée. Elle est une fonction sans argument.

#>Affichages des transactions de la journée
today.transactions()
#> # A tibble: 50 × 5
#>    Heure    `Insturment financier` Cours    Quantité Volume   
#>    <chr>    <chr>                  <chr>    <chr>    <chr>    
#>  1 13:10:10 MED PAPER              25,97    2,00     51,94    
#>  2 13:09:58 MANAGEM                1 830,00 28,00    51 240,00
#>  3 13:09:58 MANAGEM                1 830,00 7,00     12 810,00
#>  4 13:09:02 ITISSALAT AL-MAGHRIB   137,25   230,00   31 567,50
#>  5 13:08:32 ALLIANCES              49,02    100,00   4 902,00 
#>  6 13:08:32 ALLIANCES              49,01    50,00    2 450,50 
#>  7 13:08:32 ALLIANCES              49,00    1 500,00 73 500,00
#>  8 13:08:32 ALLIANCES              49,00    320,00   15 680,00
#>  9 13:08:00 ALLIANCES              49,04    200,00   9 808,00 
#> 10 13:07:54 ALLIANCES              49,10    30,00    1 473,00 
#> # … with 40 more rows
…
